{
    "KPlugin": {
        "Authors": [
            {
                "Email": "aseigo@kde.org",
                "Name": "Aaron Seigo",
                "Name[ar]": "Aaron Seigo",
                "Name[az]": "Aaron Seigo",
                "Name[ca@valencia]": "Aaron Seigo",
                "Name[ca]": "Aaron Seigo",
                "Name[cs]": "Aaron Seigo",
                "Name[de]": "Aaron Seigo",
                "Name[en_GB]": "Aaron Seigo",
                "Name[es]": "Aaron Seigo",
                "Name[eu]": "Aaron Seigo",
                "Name[fi]": "Aaron Seigo",
                "Name[fr]": "Aaron Seigo",
                "Name[hu]": "Aaron Seigo",
                "Name[ia]": "Aaron Seigo",
                "Name[id]": "Aaron Seigo",
                "Name[it]": "Aaron Seigo",
                "Name[ko]": "Aaron Seigo",
                "Name[lt]": "Aaron Seigo",
                "Name[nl]": "Aaron Seigo",
                "Name[nn]": "Aaron Seigo",
                "Name[pl]": "Aaron Seigo",
                "Name[pt]": "Aaron Seigo",
                "Name[pt_BR]": "Aaron Seigo",
                "Name[ro]": "Aaron Seigo",
                "Name[ru]": "Aaron Seigo",
                "Name[sk]": "Aaron Seigo",
                "Name[sl]": "Aaron Seigo",
                "Name[sv]": "Aaron Seigo",
                "Name[ta]": "ஆரோன் சீகோ",
                "Name[tr]": "Aaron Seigo",
                "Name[uk]": "Aaron Seigo",
                "Name[vi]": "Aaron Seigo",
                "Name[x-test]": "xxAaron Seigoxx",
                "Name[zh_CN]": "Aaron Seigo"
            }
        ],
        "Category": "",
        "Description": "Default panel featuring application launcher, task manager and system tray",
        "Description[ar]": "لوحة مبدئية تحوي مطلق تطبيقات و مدير مهام و صينية نظام",
        "Description[az]": "Tətbiq başlatma menyusundan, tapşırıq panelindən və Sistem trey-dən ibarət standart panel",
        "Description[ca@valencia]": "Quadre predeterminat amb l'iniciador d'aplicacions, el gestor de tasques i la safata del sistema",
        "Description[ca]": "Plafó predeterminat amb el llançador d'aplicacions, el gestor de tasques i la safata del sistema",
        "Description[cs]": "Výchozí panel se spouštěčem aplikací, správcem úloh a systémovou částí",
        "Description[de]": "Standardkontrollleiste mit dem Anwendungsstarter, Fensterleiste und dem Systemabschnitt der Kontrollleiste",
        "Description[en_GB]": "Default panel featuring application launcher, task manager and system tray",
        "Description[es]": "Panel por defecto que contiene un lanzador de aplicaciones, un gestor de tareas y la bandeja del sistema",
        "Description[eu]": "Lehenetsitako panela, aplikazio abiarazlea, ataza kudeatzailea eta sistemaren erretilua dituena",
        "Description[fi]": "Oletuspaneeli, jossa sovelluskäynnistin, tehtävänhallinta ja ilmoitusalue",
        "Description[fr]": "Panneau par défaut contenant le lanceur d'application, le gestionnaire de tâches et la boîte à miniatures.",
        "Description[hu]": "Az alapértelmezett panel, amely tartalmazza az alkalmazásindítót, a feladatkezelőt és a rendszertálcát",
        "Description[ia]": "Pannello predefinite con lanceator de application, administrator de carga e tabuliero de systema ",
        "Description[id]": "Perfituran panel default peluncur aplikasi, task manager dan system tray",
        "Description[it]": "Pannello p che offre un avviatore di applicazioni, un gestore delle attività e un vassoio di sistema",
        "Description[ko]": "프로그램 실행기, 작업 관리자, 시스템 트레이가 있는 기본 패널",
        "Description[lt]": "Numatytasis skydelis su programų paleidykle, užduočių tvarkytuve ir sistemos dėklu",
        "Description[nl]": "Standaard paneel met starter van toepassingen, taakbeheerder en systeemvak",
        "Description[nn]": "Standardpanel med programstartar, oppgåvehandsamar og systemtrau",
        "Description[pl]": "Domyślny panel zawierający aktywator programów, pasek zadań i tackę systemową",
        "Description[pt]": "O painel predefinido, que possui o lançador de aplicações, o gestor de tarefas e a bandeja do sistema",
        "Description[pt_BR]": "Painel padrão contendo o lançador de aplicativos, gerenciador de tarefas e área de notificação",
        "Description[ro]": "Panou implicit cu lansator de aplicații, gestionar de sarcini și tavă de sistem",
        "Description[ru]": "Стандартная панель, содержащая меню запуска приложений, панель задач и системный лоток",
        "Description[sl]": "Privzeta plošča, ki vsebuje zaganjalnik programov, upravljalnik opravil in sistemsko vrstico",
        "Description[sv]": "Standardpanel med funktionerna programstart, aktivitetshanterare och systembricka",
        "Description[ta]": "செயலி ஏவி, பணி மேலாளர், மற்றும் கணினி தட்டை கொண்ட இயல்பிருப்பு பலகை",
        "Description[tr]": "Öntanımlı panel uygulama başlatıcısını, görev yöneticisini ve sistem çekmecesini sunar",
        "Description[uk]": "Типова панель із засобом запуску програм, панеллю керування задачами та системним лотком",
        "Description[vi]": "Bảng mặc định chứa trình khởi chạy ứng dụng, trình quản lí tác vụ và khay hệ thống",
        "Description[x-test]": "xxDefault panel featuring application launcher, task manager and system trayxx",
        "Description[zh_CN]": "带有应用程序启动器、任务管理器和系统托盘的默认面板",
        "EnabledByDefault": true,
        "Id": "org.kde.plasma.desktop.defaultPanel",
        "License": "LGPLv2+",
        "Name": "Default Panel",
        "Name[ar]": "اللوحة المبدئية",
        "Name[ast]": "Panel predetermináu",
        "Name[az]": "Əsas Panel",
        "Name[bs]": "Podrazumijevani panel",
        "Name[ca@valencia]": "Quadre predeterminat",
        "Name[ca]": "Plafó predeterminat",
        "Name[cs]": "Výchozí panel",
        "Name[da]": "Standardpanel",
        "Name[de]": "Standard-Kontrollleiste",
        "Name[el]": "Προκαθορισμένος πίνακας",
        "Name[en_GB]": "Default Panel",
        "Name[es]": "Panel por omisión",
        "Name[et]": "Vaikimisi paneel",
        "Name[eu]": "Panel lehenetsia",
        "Name[fi]": "Oletuspaneeli",
        "Name[fr]": "Tableau de bord par défaut",
        "Name[gl]": "Panel predeterminado",
        "Name[he]": "לוחות ברירת־מחדל",
        "Name[hu]": "Alapértelmezett panel",
        "Name[ia]": "Pannello predefinite",
        "Name[id]": "Panel Default",
        "Name[is]": "Sjálfgefið spjald",
        "Name[it]": "Pannello predefinito",
        "Name[ja]": "標準のパネル",
        "Name[ko]": "기본 패널",
        "Name[lt]": "Numatytasis skydelis",
        "Name[mr]": "मूलभूत पटल",
        "Name[nb]": "Standardpanel",
        "Name[nds]": "Standardpaneel",
        "Name[nl]": "Standaard paneel",
        "Name[nn]": "Standardpanel",
        "Name[pa]": "ਡਿਫਾਲਟ ਪੈਨਲ",
        "Name[pl]": "Domyślny panel",
        "Name[pt]": "Painel Predefinido",
        "Name[pt_BR]": "Painel padrão",
        "Name[ro]": "Panou implicit",
        "Name[ru]": "Стандартная панель",
        "Name[sk]": "Štandardný panel",
        "Name[sl]": "Privzeti pult",
        "Name[sr@ijekavian]": "Подразумијевани панел",
        "Name[sr@ijekavianlatin]": "Podrazumijevani panel",
        "Name[sr@latin]": "Podrazumevani panel",
        "Name[sr]": "Подразумевани панел",
        "Name[sv]": "Standardpanel",
        "Name[ta]": "இயல்பிருப்பு பலகை",
        "Name[tg]": "Лавҳаи стандартӣ",
        "Name[tr]": "Öntanımlı Pano",
        "Name[uk]": "Типова панель",
        "Name[vi]": "Bảng mặc định",
        "Name[x-test]": "xxDefault Panelxx",
        "Name[zh_CN]": "默认面板",
        "Name[zh_TW]": "預設面板",
        "ServiceTypes": [
            "Plasma/LayoutTemplate"
        ],
        "Website": "https://www.kde.org/plasma-desktop"
    },
    "X-Plasma-ContainmentCategories": [
        "panel"
    ],
    "X-Plasma-Shell": "plasmashell"
}
