{
    "KPlugin": {
        "Description": "Enables switching keyboard layout through shortcuts or system tray",
        "Description[ar]": "يفعّل تبديل تخطيط لوحة المفاتيح عبر الاختصارات أو صينيّة النّظام",
        "Description[az]": "Kaviatura qatlarının sistem treydəm və düymə qısayolları ilə dəyişdirilməsini təmin edir.",
        "Description[ca@valencia]": "Activa la commutació de la disposició del teclat mitjançant dreceres o la safata del sistema",
        "Description[ca]": "Activa la commutació de la disposició del teclat mitjançant dreceres o la safata del sistema",
        "Description[cs]": "Umožňuje přepínání rozvržení klávesnice klávesovými zkratkami nebo v systémové části panelu",
        "Description[de]": "Ermöglicht das Umschalten der Tastaturbelegung über Tastenkürzel oder Systemabschnitt der Kontrollleiste",
        "Description[en_GB]": "Enables switching keyboard layout through shortcuts or system tray",
        "Description[es]": "Activa el cambio del diseño de teclado usando accesos rápidos de teclado o la bandeja del sistema",
        "Description[eu]": "Teklatuaren antolaera laster-tekla bidez edo sistema-erretiluaren bidez aldatzea gaitzen du",
        "Description[fi]": "Mahdollistaa näppäimistöasettelun vaihtamisen pikanäppäimellä tai ilmoitusalueelta",
        "Description[fr]": "Active le changement de disposition du clavier grâce aux raccourcis de clavier ou par la boîte à miniatures",
        "Description[hu]": "Lehetővé teszi a billentyűzet-kiosztások közötti váltást gyorsbombbal vagy a paneltálcán",
        "Description[ia]": "habilita commutar disposition de claviero per vias breve o tabuliero de systema",
        "Description[id]": "Fungsikan peralihan tataletak keyboard melalui pintasan atau system tray",
        "Description[it]": "Abilita il cambio di mappatura della tastiera tramite scorciatoie o dal vassoio di sistema",
        "Description[ko]": "단축키나 시스템 트레이로 키보드 레이아웃 전환 허용",
        "Description[nl]": "Schakelt omschakelen van toetsenindeling in via sneltoetsen of systeemvak",
        "Description[nn]": "Byte av tasteoppsett via snøggtastar eller systemtrauet",
        "Description[pa]": "ਕੀਬੋਰਡ ਲੇਆਉਟ ਨੂੰ ਸ਼ਾਰਟਕੱਟ ਜਾਂ ਸਿਸਟਮ ਟਰੇ ਰਾਹੀਂ ਸਮਰੱਥ ਕਰਦਾ ਹੈ",
        "Description[pl]": "Włącza przełączanie układu klawiatury poprzez skróty lub tackę systemową",
        "Description[pt]": "Activa a mudança de disposição do teclado por combinações de teclas ou na bandeja do sistema",
        "Description[pt_BR]": "Ativa a mudança de layout do teclado por teclas de atalho ou na área de notificação",
        "Description[ro]": "Activează comutarea aranjamentului de tastatură prin scurtături sau tava de sistem",
        "Description[ru]": "Обеспечивает смену раскладок клавиатуры при помощи комбинаций клавиш и через системный лоток",
        "Description[sl]": "Omogoča preklapljanje med razporeditvami tipk s pomočjo bližnjic ali sistemskega pladnja",
        "Description[sv]": "Gör det möjligt att byta tangentbordslayout via genvägar eller systembrickan",
        "Description[ta]": "கணினித்தட்டு அல்லது சுருக்குவழிகள் மூலம் விசைப்பலகை தளவமைப்பை மாற்ற உதவும்",
        "Description[tr]": "Klavye düzenini kısayollar veya sistem çekmecesinden değiştirmeyi etkinleştirir",
        "Description[uk]": "Уможливлює перемикання розкладок клавіатури за допомогою натискання клавіш або віджета системного лотка",
        "Description[vi]": "Cho phép chuyển bố cục bàn phím thông qua các lối tắt hoặc khay hệ thống",
        "Description[x-test]": "xxEnables switching keyboard layout through shortcuts or system trayxx",
        "Description[zh_CN]": "为快捷键或者系统托盘提供切换键盘布局的功能",
        "Icon": "preferences-desktop-keyboard",
        "Name": "Keyboard Daemon",
        "Name[ar]": "عفريت لوحة المفاتيح",
        "Name[az]": "Klaviatura fon xidməti",
        "Name[bg]": "Демон на клавиатурата",
        "Name[bn]": "কীবোর্ড ডীমন",
        "Name[bs]": "Demon tastature",
        "Name[ca@valencia]": "Dimoni del teclat",
        "Name[ca]": "Dimoni del teclat",
        "Name[cs]": "Démon klávesnice",
        "Name[da]": "Tastatur-dæmon",
        "Name[de]": "Tastatur-Dienst",
        "Name[el]": "Δαίμονας πληκτρολογίου",
        "Name[en_GB]": "Keyboard Dæmon",
        "Name[es]": "Demonio de teclado",
        "Name[et]": "Klaviatuurideemon",
        "Name[eu]": "Teklatuaren daimona",
        "Name[fi]": "Näppäimistötaustaprosessi",
        "Name[fr]": "Démon du clavier",
        "Name[ga]": "Deamhan Méarchláir",
        "Name[gl]": "Servizo do teclado",
        "Name[gu]": "કીબોર્ડ ડિમન",
        "Name[he]": "תהליך רקע של המקלדת",
        "Name[hi]": "कुंजीपट डेमन",
        "Name[hr]": "Tipkovnički servis",
        "Name[hu]": "Billentyűzetszolgáltatás",
        "Name[ia]": "Demone de claviero",
        "Name[id]": "Daemon Keyboard",
        "Name[is]": "Lyklaborðspúki",
        "Name[it]": "Demone della tastiera",
        "Name[ja]": "キーボードデーモン",
        "Name[kk]": "Перенетақта қызметі",
        "Name[km]": "ដេមិន​​ក្ដារចុច",
        "Name[kn]": "ಕೀಲಿಮಣೆ ನೇಪಥಿಕ",
        "Name[ko]": "키보드 데몬",
        "Name[lt]": "Klaviatūros tarnyba",
        "Name[lv]": "Tastatūras dēmons",
        "Name[mr]": "कळफलक डीमन",
        "Name[nb]": "Tastatur-daemon",
        "Name[nds]": "Tastatuur-Dämoon",
        "Name[nl]": "Toetsenbord-daemon",
        "Name[nn]": "Tastaturteneste",
        "Name[pa]": "ਕੀ-ਬੋਰਡ ਡੈਮਨ",
        "Name[pl]": "Usługa klawiatury",
        "Name[pt]": "Servidor do Teclado",
        "Name[pt_BR]": "Daemon de teclado",
        "Name[ro]": "Demon de tastatură",
        "Name[ru]": "Фоновая служба клавиатуры",
        "Name[si]": "යතුරුපුවරු ඩීමනය",
        "Name[sk]": "Démon klávesnice",
        "Name[sl]": "Ozadnji program za tipkovnico",
        "Name[sr@ijekavian]": "Демон тастатуре",
        "Name[sr@ijekavianlatin]": "Demon tastature",
        "Name[sr@latin]": "Demon tastature",
        "Name[sr]": "Демон тастатуре",
        "Name[sv]": "Tangentbordsdemon",
        "Name[ta]": "விசைப்பலகைக்கான பின்னணி சேவை",
        "Name[th]": "ดีมอนแป้นพิมพ์",
        "Name[tr]": "Klavye Arka Plan Süreci",
        "Name[ug]": "ھەرپتاختا نازارەتچى",
        "Name[uk]": "Фонова служба клавіатури",
        "Name[vi]": "Trình nền bàn phím",
        "Name[wa]": "Démon del taprece",
        "Name[x-test]": "xxKeyboard Daemonxx",
        "Name[zh_CN]": "键盘守护进程",
        "Name[zh_TW]": "鍵盤伺服程式",
        "ServiceTypes": [
            "KDEDModule"
        ]
    },
    "OnlyShowIn": "KDE;",
    "X-KDE-Kded-autoload": true,
    "X-KDE-Kded-load-on-demand": false,
    "X-KDE-Kded-phase": 2
}
